接続するサーバアドレス:127.0.0.1
Success:WSAStartup()
Success:sendto()
--------------------------
Success:recvfrom()
Accessed date   :2021/01/13 Wed 12:46:46
Accessed address:127.0.0.1
Accessed port   :8000
Received date   :struct CharaStatus character_
--------------------------
Success:sendto()
--------------------------
Success:recvfrom()
Accessed date   :2021/01/13 Wed 12:46:47
Accessed address:127.0.0.1
Accessed port   :8000
Received date   :struct CharaStatus character_
--------------------------
Success:sendto()
--------------------------
Success:recvfrom()
Accessed date   :2021/01/13 Wed 12:46:48
Accessed address:127.0.0.1
Accessed port   :8000
Received date   :struct CharaStatus character_
--------------------------
Success:sendto()
--------------------------
Success:recvfrom()
Accessed date   :2021/01/13 Wed 12:46:49
Accessed address:127.0.0.1
Accessed port   :8000
Received date   :struct CharaStatus character_
--------------------------
Success:sendto()
Success:closesocket()
