^D:\GE2A14\授業\授業\ネットワークSOCKET\SOCKET新\SERVER\SERVER\GLOBAL.CPP
/c /ZI /JMC /nologo /W3 /WX- /diagnostics:classic /sdl /Od /D _MBCS /Gm- /EHsc /RTC1 /MDd /GS /fp:precise /permissive- /Zc:wchar_t /Zc:forScope /Zc:inline /Fo"X64\DEBUG\\" /Fd"X64\DEBUG\VC141.PDB" /Gd /TP /FC D:\GE2A14\授業\授業\ネットワークSOCKET\SOCKET新\SERVER\SERVER\GLOBAL.CPP
^D:\GE2A14\授業\授業\ネットワークSOCKET\SOCKET新\SERVER\SERVER\SERVER.CPP
/c /ZI /JMC /nologo /W3 /WX- /diagnostics:classic /sdl /Od /D _MBCS /Gm- /EHsc /RTC1 /MDd /GS /fp:precise /permissive- /Zc:wchar_t /Zc:forScope /Zc:inline /Fo"X64\DEBUG\\" /Fd"X64\DEBUG\VC141.PDB" /Gd /TP /FC D:\GE2A14\授業\授業\ネットワークSOCKET\SOCKET新\SERVER\SERVER\SERVER.CPP
^D:\GE2A14\MAPEDITOR\授業\ネットワークSOCKET\SOCKET新\SERVER\SERVER\GLOBAL.CPP
/c /ZI /JMC /nologo /W3 /WX- /diagnostics:classic /sdl /Od /D _MBCS /Gm- /EHsc /RTC1 /MDd /GS /fp:precise /permissive- /Zc:wchar_t /Zc:forScope /Zc:inline /Fo"X64\DEBUG\\" /Fd"X64\DEBUG\VC141.PDB" /Gd /TP /FC D:\GE2A14\MAPEDITOR\授業\ネットワークSOCKET\SOCKET新\SERVER\SERVER\GLOBAL.CPP
^D:\GE2A14\MAPEDITOR\授業\ネットワークSOCKET\SOCKET新\SERVER\SERVER\SERVER.CPP
/c /ZI /JMC /nologo /W3 /WX- /diagnostics:classic /sdl /Od /D _MBCS /Gm- /EHsc /RTC1 /MDd /GS /fp:precise /permissive- /Zc:wchar_t /Zc:forScope /Zc:inline /Fo"X64\DEBUG\\" /Fd"X64\DEBUG\VC141.PDB" /Gd /TP /FC D:\GE2A14\MAPEDITOR\授業\ネットワークSOCKET\SOCKET新\SERVER\SERVER\SERVER.CPP
