^C:\USERS\匠矢\DESKTOP\新しいフォルダー (2)\授業\ネットワークSOCKET\SOCKET新\CLIENT\CLIENT\CLIENT.CPP|C:\USERS\匠矢\DESKTOP\新しいフォルダー (2)\授業\ネットワークSOCKET\SOCKET新\CLIENT\CLIENT\GLOBAL.CPP
C:\USERS\匠矢\DESKTOP\新しいフォルダー (2)\授業\ネットワークSOCKET\SOCKET新\CLIENT\CLIENT\DEBUG\VC141.PDB
C:\USERS\匠矢\DESKTOP\新しいフォルダー (2)\授業\ネットワークSOCKET\SOCKET新\CLIENT\CLIENT\DEBUG\VC141.IDB
C:\USERS\匠矢\DESKTOP\新しいフォルダー (2)\授業\ネットワークSOCKET\SOCKET新\CLIENT\CLIENT\DEBUG\GLOBAL.OBJ
C:\USERS\匠矢\DESKTOP\新しいフォルダー (2)\授業\ネットワークSOCKET\SOCKET新\CLIENT\CLIENT\DEBUG\CLIENT.OBJ
^C:\USERS\匠矢\DESKTOP\新しいフォルダー (2)\授業\ネットワークSOCKET\SOCKET新\CLIENT\CLIENT\CLIENT.CPP
C:\USERS\匠矢\DESKTOP\新しいフォルダー (2)\授業\ネットワークSOCKET\SOCKET新\CLIENT\CLIENT\DEBUG\VC141.PDB
C:\USERS\匠矢\DESKTOP\新しいフォルダー (2)\授業\ネットワークSOCKET\SOCKET新\CLIENT\CLIENT\DEBUG\VC141.IDB
C:\USERS\匠矢\DESKTOP\新しいフォルダー (2)\授業\ネットワークSOCKET\SOCKET新\CLIENT\CLIENT\DEBUG\CLIENT.OBJ
^C:\USERS\匠矢\DESKTOP\新しいフォルダー (2)\授業\ネットワークSOCKET\SOCKET新\CLIENT\CLIENT\GLOBAL.CPP
C:\USERS\匠矢\DESKTOP\新しいフォルダー (2)\授業\ネットワークSOCKET\SOCKET新\CLIENT\CLIENT\DEBUG\VC141.PDB
C:\USERS\匠矢\DESKTOP\新しいフォルダー (2)\授業\ネットワークSOCKET\SOCKET新\CLIENT\CLIENT\DEBUG\VC141.IDB
C:\USERS\匠矢\DESKTOP\新しいフォルダー (2)\授業\ネットワークSOCKET\SOCKET新\CLIENT\CLIENT\DEBUG\GLOBAL.OBJ
